{
  "type": "service_account",
  "project_id": "tribal-sign-300106",
  "private_key_id": "2d6d2ba4bb366a86de8f4e104c4fc156edb29a79",
  "private_key": "-----BEGIN PRIVATE KEY-----\nMIIEvQIBADANBgkqhkiG9w0BAQEFAASCBKcwggSjAgEAAoIBAQDM2+h6DgFOzH1C\n6GMQrkzY0piPdTTL0+tz4xcrJraQGzUG6Y7DTT7UFb2QCJn3tarXB6IpmfAutuXs\nTLTcqPnDcTXW2Mk9d69ZOkpWYY+A75NTjWgQjtImqYbAPadkdDTupY5iticevPRJ\n/oVUQTQIv2Cdu1KMn0ZlMAVEDlOZ7WLbUMDqIocBdK03Ifh/wj/DXtM45N1k/0xq\nXVQROu+XAsjC3EMsBuuqD3j0eKl3Fljvxu9yxMdIMRmj7LCn0lq1ZIaYiewOx4oJ\n+2JoykgNS44eevNho5OyTLbHmOJapPdZZc938pRD/V0v6H104uYbNP0kp8Ofyhd3\ncPOWLfGdAgMBAAECggEANdPCbe+oIFBSyXXOMd/aiU4sj+U4DiaMw1J0D/6IEa1U\nbZCI1oBBdfCQcnwQGKo/TWjQDyZHmb6tAz3Ud/ZeSiBBCUbE+cWs6UELr07LKhHJ\nIDcTlOYyCb6ZjYGlrhtqnRobI4zBEq6LcbXSyqSnS3UdqdRCiHiBQq0vdQZeqR7i\nMCg6spf6HSavQw+nPlGEfJqRoqFCrfaIx4X+hmitTx837kASgD+NgqHOUldQnSZU\n9MbIQq3DkQDvKCCVmZ6hpUmg6HKBSWptM5nPjivapitdVvGVz+3J12CLlhMKUh4H\ni9XIUxvzV8tYQ3lsDgijlpzFIc9IlI5dR8Yd1bzvcQKBgQD0/EhXfly4bUNKLSmG\nri+xghSL6f2YB1o3k35wXLxJlxFMGB/Jp5uwbO/Tajr1Mu7nrMvLJrNy367JI3VZ\nVtt8/5mPryvBTHbILoY3JoekEX6JmaLsISMrQfpuB+2hZbGHLJJiuQ7NtU394wwN\n4xtYinVP5IBN83gCD54a6LOFFwKBgQDWEcfZWl5x6hvp4ZwAJnpuK+WCox+Qx6d6\njfvg2D7YjHP4CVie22L/vZRsVO92eXN3wbTWfoYlghJlxleewuWw/juekvkMq6nM\nSwe0gYpnTGgNWFHr/oAkzxMHLbN0QjEUVRB+ZMuJXvQdIebZbTKgbVx94KVfYDhd\n+z+GnfnXawKBgBh6LHAxe+ohYJvEr2V5eeJucMcZ9fB+q5Dp97QaT+W6ZkwIDQUE\n7hVOjRe+gW2GTUBwj1wY3c0YdEo8dLkcaImwsBMfGWwSy7tsipRwERVfehkddJ3L\nIcxspyzfNeruUjKDTYz3mHcNKmG3kbjBfDX4f4gf+IHRVag/Dzj5Dxa5AoGAK6sa\n4ordw00nfpFoWlt/FCReQET4dndUAdse66IRR+l26r01V8qXKmZI9cRpyPhDhsV8\nF1leEh6zlBFe5GMLqgxiqxl+Noh6LdOMcdUPH71laHuA0qxrBZc8YXWAKxIpouUr\nZS04nABDugGlbusorbNBb+g4s/kT5pAPSG3HfpsCgYEA7NvJe0/tr25cBVxFNI1c\nLvyJ1akLb5qlGGQxDkcCBwMSFfTxUDJqZWOZDsQA0TnXdo3LDPX3vcCUhVuVxDQb\nfbrh/AX9awTHRgDAP3cVExiXYxji7smuFk49INO1DNsnB4iu5pCpnPuAQJSGAhFA\n+FoSRz0aeYx066YK8r+oqH4=\n-----END PRIVATE KEY-----\n",
  "client_email": "vayentha-sca@tribal-sign-300106.iam.gserviceaccount.com",
  "client_id": "108678647354478750497",
  "auth_uri": "https://accounts.google.com/o/oauth2/auth",
  "token_uri": "https://oauth2.googleapis.com/token",
  "auth_provider_x509_cert_url": "https://www.googleapis.com/oauth2/v1/certs",
  "client_x509_cert_url": "https://www.googleapis.com/robot/v1/metadata/x509/vayentha-sca%40tribal-sign-300106.iam.gserviceaccount.com"
}
